Using Wikipedia as a starting point
…
What kind of things are mentioned in this page?

mep_wiki_df %>%
  pull(qid) %>%
  tw_get_property(p = "P31") %>%
  group_by(value) %>%
  tally(sort = TRUE) %>%
  transmute(instance_of = tw_get_label(value),
            n)
#> # A tibble: 67 × 2
#>    instance_of                                    n
#>    <chr>                                      <int>
#>  1 human                                        819
#>  2 Wikimedia list article                       227
#>  3 political party                              161
#>  4 <NA>                                          62
#>  5 election to the European Parliament           35
#>  6 political party in Germany                    13
#>  7 Green party                                   13
#>  8 political group of the European Parliament     8
#>  9 Wikimedia project page                         6
#> 10 electoral alliance                             6
#> # … with 57 more rows
…
Here we already start to meet some of the quirks of Wikidata.

The question “in which country is this city located” seems straightforward, but as illustrated in the package readme it actually isn’t always the case, as, for example, London has many values for the property “country”, all the way from “Roman Empire” through “United Kingdom”. Enabling the only_first parameters, which is a the most efficient option in many circumstances, is not a sensible solution in this case, as predicting the order of properties is not straightforward.

To make things easier in such circumstances tidywikidatar includes dedicated parameters: preferred (which gives back the value recorded as “preferred”), and latest_start_time (which checks the qualifiers, and selects the one with the most recent “start time”).

meps9_pob_df %>%
  mutate(pob_country_id = tw_get_p(id = place_of_birth_id,
                                   p = "P17",
                                   only_first = TRUE,
                                   preferred = TRUE)) %>%
  group_by(pob_country_id) %>%
  tally(sort = TRUE) %>%
  mutate(pob_country = tw_get_label(pob_country_id))
#> # A tibble: 58 × 3
#>    pob_country_id     n pob_country   
#>    <chr>          <int> <chr>         
#>  1 Q183              95 Germany       
#>  2 Q38               78 Italy         
#>  3 Q142              77 France        
#>  4 Q145              60 United Kingdom
#>  5 Q29               56 Spain         
#>  6 Q36               50 Poland        
#>  7 Q218              34 Romania       
#>  8 Q55               30 Netherlands   
#>  9 Q31               23 Belgium       
#> 10 Q213              22 Czech Republic
#> # … with 48 more rows
…
